{
	"customers" : [
		{
			"id": 0,
			"firts_name": "Michel",
			"last_name" : "Drucker",
			"picture"   : "https://api.adorable.io/avatars/255/abott@adorable.png",
			"birthday" 	: "12/09/1942",
			"email"     : "michel@drucker.com",
			"phone"			: "01.02.03.04.05",
			"company"   : "France 2",
			"title"     : "French journalist and television presenter",
			"desciption" : "Lorem ipsum dolor sit amet, consectetur adipisicing elit. Harum voluptas atque, repudiandae, alias quae architecto perferendis. Facere laudantium sequi dolor, commodi sunt aut porro magnam qui, odit perspiciatis, minima at.",
			"tags"			: ["journalist", "France", "TV", "France2", "Europe1"],
			"notes"			: [
				{
					"subject" 	: "Is he immortal?",
					"note"			: "I Think Yes !",
					"related_to": "Michel Drucker"
				}
			],
			"tasks"		: [
				{
					"task" 				: "meeting for the project 'Vivement dimanche !'",
					"category"  	: "Metting",
					"date"				: "20/06/1997",
					"owner"				: "Michel Drucker",
					"priority"		: "Important",
					"status"			: "Pending",
					"related_to"	: "France Télévision",
					"related_deal": "Program"
				}
			]
		},
		{
			"id": 1,
			"firts_name": "Frédérique",
			"last_name" : "Hoschedé",
			"picture"   : "https://api.adorable.io/avatars/225/abott@adorable.png",
			"birthday" 	: "14/07/1953",
			"email"     : "frederique@hoschedé.com",
			"phone"			: "01.02.03.04.05",
			"company"   : "TF1",
			"title"     : "French singer and television presenter",
			"desciption" : "Lorem ipsum dolor sit amet, consectetur adipisicing elit. Nam, esse, nemo. Alias impedit, laboriosam. Fugit error laboriosam consequatur nihil! Cumque possimus laudantium numquam atque itaque, impedit deleniti doloremque nemo suscipit.",
			"tags"			: [],
			"notes"			: [
				{
					"subject" 	: "",
					"note"			: "",
					"related_to": ""
				}
			],
			"tasks"		: [
				{
					"task" 				: "meeting for the project 'Récrée A2'",
					"category"  	: "Metting",
					"date"				: "3 June 1980",
					"owner"				: "Michel Drucker",
					"priority"		: "Important",
					"status"			: "Pending",
					"related_to"	: "Antenne 2",
					"related_deal": "Program"
				},
				{
					"task" 				: "meeting for the project 'Club Dorothée'",
					"category"  	: "Metting",
					"date"				: "2 August 1987",
					"owner"				: "Michel Drucker",
					"priority"		: "Important",
					"status"			: "Pending",
					"related_to"	: "TF1",
					"related_deal": "Program"
				}
			]
		},
		{
			"id": 2,
			"firts_name": "Patrick",
			"last_name" : "Poivron d'Avord",
			"picture"   : "https://api.adorable.io/avatars/215/abott@adorable.png",
			"birthday" 	: "20/09/1947",
			"email"     : "frederique@hoschedé.com",
			"phone"			: "01.02.03.04.05",
			"company"   : "TF1",
			"title"     : "French journalist and television presenter",
			"desciption" : "Lorem ipsum dolor sit amet, consectetur adipisicing elit. Numquam culpa animi minus reprehenderit eos fugiat id. Enim quis obcaecati voluptatum soluta ullam, quae, modi itaque, atque natus aperiam totam sapiente.",
			"tags"			: ["journalist", "France", "TV", "France2", "Europe1"],
			"notes"			: [],
			"tasks"		: []
		}
	]
}